{
  "isLiveStreamOh": "",
  "liveStreamOpenHomes": [
    {
      "hashCode": "",
      "openHouseDate": "",
      "openHouseStartTime": "",
      "openHouseEndTime": "",
      "url": "",
      "comments": ""
    }
  ]
}