{
  "gis": {
    "crossStreet": "",
    "mapCoordinate": "",
    "directions": "",
    "latitude": 0,
    "longitude": 0,
    "mlsLatitude": 0,
    "mlsLongitude": 0,
    "parcelLatitude": 0,
    "parcelLongitude": 0,
    "geocodedCity": "",
    "neighborhoodId": ""
  },
  "address": {
    "unparsedAddress": "",
    "city": "",
    "countyOrParish": "",
    "stateOrProvince": "",
    "postalCode": "",
    "streetDirPrefix": "",
    "streetDirSuffix": "",
    "streetName": "",
    "streetNumber": "",
    "unitNumber": "",
    "township": ""
  },
  "area": {
    "mlsAreaMajor": "",
    "subdivisionName": ""
  },
  "school": {
    "schoolDistrict": "",
    "elementarySchool": "",
    "elementarySchoolDistrict": "",
    "middleOrJuniorSchool": "",
    "highSchool": "",
    "highSchoolDistrict": "",
    "middleOrJuniorSchoolDistrict": "",
    "sdUnifId": "",
    "sdElemId": "",
    "sdSecId": "",
    "sazElemId": "",
    "sazMiddleId": "",
    "sazHighId": ""
  }
}
