{
  "listingMasterId": "",
  "propertyMasterId": "",
  "listAgentMasterId": "",
  "listOfficeMasterId": "",
  "coListAgentMasterId": "",
  "coListOfficeMasterId": "",
  "buyerAgentMasterId": "",
  "buyerOfficeMasterId": "",
  "coBuyerAgentMasterId": "",
  "coBuyerOfficeMasterId": "",
  "addressMasterId": "",
  "companyMasterId": ""
}
