{
  "property": {
    "propertyType": "",
    "propertySubType": "",
    "financial": {},
    "listing": {},
    "tax": {},
    "hoa": {},
    "location": {},
    "structure": {},
    "characteristics": {},
    "utilities": {},
    "equipment": {},
    "business": {},
    "photosCount": 0
  },
  "media": [],
  "openHouse":{},
  "masterId": {},
  "liveStreamOpenHouse": {},
  "realogy": {}
}
