{
  "architectureStyle": "",
  "heating": "",
  "cooling": "",
  "constructionMaterials": "",
  "flooring": "",
  "levels": "",
  "bedroomsTotal": 0,
  "bathroomsFull": 0,
  "bathroomsPartial": 0,
  "bathroomsOnequarter": 0,
  "bathroomsThreequarter": 0,
  "bathroomsHalf": 0,
  "buildingName": "",
  "buildingFeatures": "",
  "buildingAreaTotal": 0,
  "buildingAreaSource": "",
  "livingArea": 0,
  "roof": "",
  "parkingFeatures": "",
  "parkingTotal": 0,
  "otherParking": "",
  "otherParkingSpaces": "",
  "garageSpaces": 0,
  "carportSpaces": 0,
  "coveredSpaces": 0,
  "openParkingSpaces": 0,
  "yearBuilt": 0,
  "storiesTotal": 0,
  "fireplace": true,
  "fireplaceFeatures": "",
  "fireplaceTotal": 0,
  "doorFeatures": "",
  "foundationDetails": "",
  "insulationDesc": "",
  "roomType": "",
  "builderName": "",
  "accessibilityFeatures": "",
  "floodArea": "",
  "homeownersProtPlan": "",
  "exteriorFeatures": "",
  "interiorFeatures": "",
  "bodyType": "",
  "basement": "",
  "otherStructures": "",
  "builderModel": "",
  "structureType": "",
  "rooms": {
    "roomsTotal": 0,
    "kitchenDim": "",
    "livingRmDim": "",
    "masterBrDim": "",
    "diningRmDim": "",
    "familyRmDim": "",
    "diningDesc": "",
    "familyRoomDesc": "",
    "kitchenDesc": "",
    "livingRmDesc": "",
    "bedroomDesc": "",
    "bathroomDesc": ""
  },
  "propertyCondition": {
    "isFixerUpper": true,
    "isNewConstruction": true
  },
  "approximateOfficeSquarefeet": 0,
  "approximateRetailSquarefeet": 0,
  "approximateWarehouseSquarefeet": 0,
  "totalRestrooms": 0,
  "load": ""
}
