{
    "addressMasterId": "",
    "addressType": "",
    "address": "",
    "addressLine1": "",
    "addressLine2": "",
    "city": "",
    "state": "",
    "zipcode": "",
    "country": "",
    "valid": true,
    "streetLatitude": 0,
    "streetLongitude": 0,
    "parcelLatitude": 0,
    "parcelLongitude": 0,
    "addressId": "",
    "sdUnifId": "",
    "originalAddress": {
        "addressType": "",
        "addressLine1": "",
        "addressLine2": "",
        "city": "",
        "state": "",
        "zipcode": "",
        "country": ""
    }
}