{
    "phoneType": "",
    "phoneNumber": "",
    "extension": "",
    "seqNum": 1,
    "isPrimary": true,
    "dataAvailabilityStatus": "",
    "dataSources": [
        {
            "sourceSystemName": "",
            "sourceAvailabilityStatus": ""
        }
    ]
}