{
    "staffMasterId": "",
    "sourceMetaDataList": [],
    "objVersion": 0,
    "apiVersion": "",
    "replacedByMasterId": "",
    "deprecatedMasterIds": [],
    "isShowOnInternet": false,
    "createTimeStamp": "",
    "updateTimeStamp": "",
    "basicPersonInfo": {
    },
    "profile": "",
    "webDisplayOptions": [],
    "companyOfficeAssociation": {
    },
    "customAttributes": [],
    "awards": [],
    "designations": [],
    "jobTitles": [],
    "optInActions": [],
    "teams": []
}