{
  "progressAward": {
    "DIMAwardProgressKey": "",
    "lEntity_fk": 1234,
    "lPeriodicDate_fk": "",
    "AwardOrder": "",
    "Award": "",
    "DesignationNextUnits": 12.2,
    "GrossCommProgress": 44.777,
    "UnitsProgress": 89.899,
    "VolumeProgress": 50.232,
    "Progress": 11.344,
    "Status": "OP",
    "CreatedOn": "",
    "LastUpdatedOn": ""
  },
  "grantsForAwards": {
    "data": [
      {
        "DIMAwardProgressKey": "",
        "lEntity_fk": 1234,
        "lPeriodicDate_fk": "",
        "AwardOrder": "",
        "Award": "",
        "DesignationNextUnits": 12.2,
        "GrossCommProgress": 44.777,
        "UnitsProgress": 89.899,
        "VolumeProgress": 50.232,
        "Progress": 11.344,
        "Status": "OP",
        "CreatedOn": "",
        "LastUpdatedOn": ""
      }
    ]
  }
}