{
    "mediaType": "Image",
    "mediaUsageType": "ListTracLogo",
    "url": "http://m.bhgrealestate.com/5i0/1jqd87ghyjnnm46f1bk7cbvzq7i",
    "cdnURL": "https://images.uat.eapdeprd.realogyprod.com/uat-offices/BHG/Q00400000FDEncskbuP4hND9sPk79cboaiNJaA3w/logos/Q01600000FPTUqfBqJeiGOBfeDYHNyr6oSpONZQf.jpg",
    "sourceMediaURL": "http://imgs.azureedge.net/356D9AD3-6268-435C-983D-73DC645DA753",
    "seqNum": 1,
    "dataAvailabilityStatus": "A"
}