{
    "personMasterId": "",
    "firstName": "",
    "lastName": "",
    "displayName": "",
    "familiarName": "",
    "preferredFirstName": "",
    "emailAccounts": [],
    "phoneNumbers": [],
    "media": []
}